\relax 
\providecommand\hyper@newdestlabel[2]{}
\@writefile{toc}{\contentsline {chapter}{\numberline {2}Implementace 3D SALM algoritm\IeC {\r u}}{26}{chapter.48}}
\@writefile{toc}{\contentsline {section}{\numberline {2.1}Kinect Fusion}{26}{section.49}}
\@writefile{lof}{\contentsline {figure}{\numberline {2.1}{\ignorespaces workflow Kinect Fusion}}{26}{figure.50}}
\newlabel{imgKinectFusion}{{2.1}{26}{workflow Kinect Fusion}{figure.50}{}}
\@writefile{toc}{\contentsline {section}{\numberline {2.2}Kintinuous}{27}{section.51}}
\@writefile{lof}{\contentsline {figure}{\numberline {2.2}{\ignorespaces Sch\IeC {\'e}ma dataflow v r\IeC {\'a}mci Kintinuous. Jednotliv\IeC {\'e} barevn\IeC {\v e} ozna\IeC {\v c}en\IeC {\'e} subprocesy b\IeC {\v e}\IeC {\v z}\IeC {\'\i } na separovan\IeC {\'y}ch v\IeC {\'y}po\IeC {\v c}etn\IeC {\'\i }ch vl\IeC {\'a}knech [REFERENCE]}}{28}{figure.52}}
\newlabel{imgKintinuous}{{2.2}{28}{Schéma dataflow v rámci Kintinuous. Jednotlivé barevně označené subprocesy běží na separovaných výpočetních vláknech [REFERENCE]}{figure.52}{}}
\@writefile{toc}{\contentsline {section}{\numberline {2.3}Elastic Fusion}{28}{section.53}}
\@writefile{lof}{\contentsline {figure}{\numberline {2.3}{\ignorespaces Uk\IeC {\'a}zka "Dense model" vytvo\IeC {\v r}en\IeC {\'e}ho pomoc\IeC {\'\i } Elastic Fusion. Je tvo\IeC {\v r}en 4,5mil plo\IeC {\v s}kami (surfels)}}{29}{figure.54}}
\newlabel{imgElasticFusion}{{2.3}{29}{Ukázka "Dense model" vytvořeného pomocí Elastic Fusion. Je tvořen 4,5mil ploškami (surfels)}{figure.54}{}}
\@writefile{toc}{\contentsline {section}{\numberline {2.4}Dense Visual SLAM}{29}{section.55}}
\@writefile{lof}{\contentsline {figure}{\numberline {2.4}{\ignorespaces Grafick\IeC {\'a} reprezentace v\IeC {\'y}stup\IeC {\r u} z Dense\IeC {\nobreakspace  }Visual\IeC {\nobreakspace  }SLAM implementace}}{30}{figure.56}}
\newlabel{imgDenseSlam}{{2.4}{30}{Grafická reprezentace výstupů z Dense Visual SLAM implementace}{figure.56}{}}
\@writefile{toc}{\contentsline {section}{\numberline {2.5}RGBDSLAM - 6DOF SLAM}{31}{section.57}}
\@writefile{lof}{\contentsline {figure}{\numberline {2.5}{\ignorespaces Sch\IeC {\'e}ma dataflow RGBDSLAM implementace}}{31}{figure.58}}
\newlabel{imgRGBDSlam}{{2.5}{31}{Schéma dataflow RGBDSLAM implementace}{figure.58}{}}
\@writefile{toc}{\contentsline {section}{\numberline {2.6}Komparace algoritm\IeC {\r u}}{32}{section.59}}
\@setckpt{text/implementace}{
\setcounter{page}{34}
\setcounter{equation}{0}
\setcounter{enumi}{0}
\setcounter{enumii}{0}
\setcounter{enumiii}{0}
\setcounter{enumiv}{0}
\setcounter{footnote}{0}
\setcounter{mpfootnote}{0}
\setcounter{part}{0}
\setcounter{chapter}{2}
\setcounter{section}{6}
\setcounter{subsection}{0}
\setcounter{subsubsection}{0}
\setcounter{paragraph}{0}
\setcounter{subparagraph}{0}
\setcounter{figure}{5}
\setcounter{table}{0}
\setcounter{Item}{0}
\setcounter{Hfootnote}{0}
\setcounter{bookmark@seq@number}{22}
\setcounter{AM@survey}{0}
\setcounter{parentequation}{0}
\setcounter{section@level}{1}
}
