\relax 
\providecommand\hyper@newdestlabel[2]{}
\@writefile{toc}{\contentsline {chapter}{\numberline {5}N\IeC {\'a}vrh \IeC {\'u}pravy 3D SLAMu}{62}{chapter.143}}
\@writefile{toc}{\contentsline {section}{\numberline {5.1}Roz\IeC {\v s}\IeC {\'\i }\IeC {\v r}en\IeC {\'\i } sou\IeC {\v c}asn\IeC {\'y}ch SLAM algoritm\IeC {\r u}}{62}{section.144}}
\@writefile{toc}{\contentsline {section}{\numberline {5.2}Diskr\IeC {\'e}tn\IeC {\'\i } Kalman\IeC {\r u}v filtr}{62}{section.146}}
\@writefile{lof}{\contentsline {figure}{\numberline {5.1}{\ignorespaces Princip f\IeC {\'u}ze metod sn\IeC {\'\i }ma\IeC {\v c}\IeC {\r u}}}{63}{figure.145}}
\newlabel{imgCameraObscura}{{5.1}{63}{Princip fúze metod snímačů}{figure.145}{}}
\newlabel{eq37}{{5.1}{63}{Diskrétní Kalmanův filtr}{equation.147}{}}
\newlabel{eq38}{{5.2}{63}{Diskrétní Kalmanův filtr}{equation.148}{}}
\newlabel{eq39}{{5.3}{63}{Diskrétní Kalmanův filtr}{equation.150}{}}
\newlabel{eq40}{{5.4}{63}{Diskrétní Kalmanův filtr}{equation.151}{}}
\@writefile{lof}{\contentsline {figure}{\numberline {5.2}{\ignorespaces Iterace Kalmanova filtru}}{64}{figure.149}}
\newlabel{imgKalmanIteration}{{5.2}{64}{Iterace Kalmanova filtru}{figure.149}{}}
\newlabel{eq41}{{5.5}{64}{Diskrétní Kalmanův filtr}{equation.152}{}}
\newlabel{eq42}{{5.6}{64}{Diskrétní Kalmanův filtr}{equation.153}{}}
\newlabel{eq43}{{5.7}{64}{Diskrétní Kalmanův filtr}{equation.154}{}}
\newlabel{eq44}{{5.8}{64}{Diskrétní Kalmanův filtr}{equation.155}{}}
\newlabel{eq45}{{5.9}{64}{Diskrétní Kalmanův filtr}{equation.156}{}}
\@writefile{lof}{\contentsline {figure}{\numberline {5.3}{\ignorespaces Grafick\IeC {\'e} zn\IeC {\'a}zorn\IeC {\v e}n\IeC {\'\i } predikce kalmanov\IeC {\'y}m filtrem (predikce, m\IeC {\v e}\IeC {\v r}en\IeC {\'\i }, korekce)}}{65}{figure.157}}
\newlabel{imgKalman}{{5.3}{65}{Grafické znázornění predikce kalmanovým filtrem (predikce, měření, korekce)}{figure.157}{}}
\@writefile{toc}{\contentsline {section}{\numberline {5.3}Ro\IeC {\v s}\IeC {\'\i }\IeC {\v r}en\IeC {\'y} Klaman\IeC {\r u}v filtr}{65}{section.158}}
\newlabel{eq46}{{5.10}{65}{Rošířený Klamanův filtr}{equation.159}{}}
\newlabel{eq47}{{5.11}{65}{Rošířený Klamanův filtr}{equation.160}{}}
\@writefile{toc}{\contentsline {section}{\numberline {5.4}F\IeC {\'u}ze kolov\IeC {\'e} a vizu\IeC {\'a}ln\IeC {\'\i } odometrie}{65}{section.161}}
\@writefile{toc}{\contentsline {section}{\numberline {5.5}Kolov\IeC {\'a} odometrie (Dead Reckoning)}{66}{section.162}}
\newlabel{eq48}{{5.12}{66}{Kolová odometrie (Dead Reckoning)}{equation.163}{}}
\newlabel{eq49}{{5.13}{66}{Kolová odometrie (Dead Reckoning)}{equation.165}{}}
\newlabel{eq50}{{5.14}{66}{Kolová odometrie (Dead Reckoning)}{equation.166}{}}
\newlabel{eq51}{{5.15}{66}{Kolová odometrie (Dead Reckoning)}{equation.167}{}}
\newlabel{eq52}{{5.16}{66}{Kolová odometrie (Dead Reckoning)}{equation.168}{}}
\newlabel{eq53}{{5.17}{66}{Kolová odometrie (Dead Reckoning)}{equation.169}{}}
\@writefile{lof}{\contentsline {figure}{\numberline {5.4}{\ignorespaces Model diferenc\IeC {\'\i }\IeC {\'a}ln\IeC {\'\i }ho podvozku [Reference]}}{67}{figure.164}}
\newlabel{imgPozvozekModel}{{5.4}{67}{Model diferencíálního podvozku [Reference]}{figure.164}{}}
\@writefile{toc}{\contentsline {section}{\numberline {5.6}Metoda m\IeC {\v e}\IeC {\v r}en\IeC {\'\i } p\IeC {\v r}esnosti vytvo\IeC {\v r}en\IeC {\'y}ch model\IeC {\r u}}{67}{section.170}}
\newlabel{eq54}{{5.18}{67}{Metoda měření přesnosti vytvořených modelů}{equation.171}{}}
\@setckpt{text/navrh_upravy}{
\setcounter{page}{69}
\setcounter{equation}{18}
\setcounter{enumi}{0}
\setcounter{enumii}{0}
\setcounter{enumiii}{0}
\setcounter{enumiv}{0}
\setcounter{footnote}{0}
\setcounter{mpfootnote}{0}
\setcounter{part}{0}
\setcounter{chapter}{5}
\setcounter{section}{6}
\setcounter{subsection}{0}
\setcounter{subsubsection}{0}
\setcounter{paragraph}{0}
\setcounter{subparagraph}{0}
\setcounter{figure}{4}
\setcounter{table}{0}
\setcounter{Item}{0}
\setcounter{Hfootnote}{0}
\setcounter{bookmark@seq@number}{63}
\setcounter{AM@survey}{0}
\setcounter{parentequation}{0}
\setcounter{section@level}{1}
}
