\relax 
\providecommand\hyper@newdestlabel[2]{}
\@writefile{toc}{\contentsline {chapter}{\numberline {A}N\IeC {\v e}kter\IeC {\'e} p\IeC {\v r}\IeC {\'\i }kazy bal\IeC {\'\i }\IeC {\v c}ku \texttt  {thesis} }{73}{chapter.179}}
\@writefile{toa}{\contentsline {chapter}{\numberline {A}N\IeC {\v e}kter\IeC {\'e} p\IeC {\v r}\IeC {\'\i }kazy bal\IeC {\'\i }\IeC {\v c}ku \texttt  {thesis} }{73}{chapter.179}}
\@writefile{toc}{\contentsline {section}{\numberline {A.1}P\IeC {\v r}\IeC {\'\i }kazy pro sazbu veli\IeC {\v c}in a jednotek }{73}{section.180}}
\@writefile{toa}{\contentsline {section}{\numberline {A.1}P\IeC {\v r}\IeC {\'\i }kazy pro sazbu veli\IeC {\v c}in a jednotek }{73}{section.180}}
\@writefile{lot}{\contentsline {table}{\numberline {A.1}{\ignorespaces P\IeC {\v r}ehled p\IeC {\v r}\IeC {\'\i }kaz\IeC {\r u} pro matematick\IeC {\'e} prost\IeC {\v r}ed\IeC {\'\i } }}{73}{table.181}}
\@writefile{toc}{\contentsline {section}{\numberline {A.2}P\IeC {\v r}\IeC {\'\i }kazy pro sazbu symbol\IeC {\r u} }{73}{section.182}}
\@writefile{toa}{\contentsline {section}{\numberline {A.2}P\IeC {\v r}\IeC {\'\i }kazy pro sazbu symbol\IeC {\r u} }{73}{section.182}}
\@writefile{toc}{\contentsline {chapter}{\numberline {B}Druh\IeC {\'a} p\IeC {\v r}\IeC {\'\i }loha }{74}{chapter.184}}
\@writefile{toa}{\contentsline {chapter}{\numberline {B}Druh\IeC {\'a} p\IeC {\v r}\IeC {\'\i }loha }{74}{chapter.184}}
\@writefile{lof}{\contentsline {figure}{\numberline {B.1}{\ignorespaces Zlep\IeC {\v s}en\IeC {\'e} Wilsonovo proudov\IeC {\'e} zrcadlo.}}{74}{figure.185}}
\@writefile{toc}{\contentsline {chapter}{\numberline {C}Obsah p\IeC {\v r}ilo\IeC {\v z}en\IeC {\'e}ho CD }{75}{chapter.186}}
\@writefile{toa}{\contentsline {chapter}{\numberline {C}Obsah p\IeC {\v r}ilo\IeC {\v z}en\IeC {\'e}ho CD }{75}{chapter.186}}
\@setckpt{text/prilohy}{
\setcounter{page}{76}
\setcounter{equation}{0}
\setcounter{enumi}{0}
\setcounter{enumii}{0}
\setcounter{enumiii}{0}
\setcounter{enumiv}{1}
\setcounter{footnote}{0}
\setcounter{mpfootnote}{0}
\setcounter{part}{0}
\setcounter{chapter}{3}
\setcounter{section}{0}
\setcounter{subsection}{0}
\setcounter{subsubsection}{0}
\setcounter{paragraph}{0}
\setcounter{subparagraph}{0}
\setcounter{figure}{0}
\setcounter{table}{0}
\setcounter{Item}{0}
\setcounter{Hfootnote}{1}
\setcounter{bookmark@seq@number}{72}
\setcounter{AM@survey}{0}
\setcounter{parentequation}{0}
\setcounter{section@level}{0}
}
