\relax 
\providecommand\hyper@newdestlabel[2]{}
\@writefile{toc}{\contentsline {chapter}{\numberline {1}Problematika SLAM algoritm\IeC {\r u}}{13}{chapter.6}}
\@writefile{toc}{\contentsline {section}{\numberline {1.1}Simultanious Localization and Mapping (SLAM)}{13}{section.7}}
\@writefile{lof}{\contentsline {figure}{\numberline {1.1}{\ignorespaces Sch\IeC {\'e}matick\IeC {\'e} zn\IeC {\'a}zorn\IeC {\v e}n\IeC {\'\i } SLAM problematiky [REFERENCE]}}{13}{figure.8}}
\newlabel{imgSLAM}{{1.1}{13}{Schématické znázornění SLAM problematiky [REFERENCE]}{figure.8}{}}
\newlabel{eq1}{{1.1}{13}{Simultanious Localization and Mapping (SLAM)}{equation.9}{}}
\@writefile{toc}{\contentsline {subsection}{\numberline {1.1.1}Graph Based SLAM (Pose Graph)}{14}{subsection.10}}
\@writefile{lof}{\contentsline {figure}{\numberline {1.2}{\ignorespaces Sch\IeC {\'e}ma Graph SLAMu, pozice robota, landmarky a vazby meze nimi tvo\IeC {\v r}\IeC {\'\i } celistv\IeC {\'y} graf reprezentuj\IeC {\'\i }c\IeC {\'\i } okol\IeC {\'\i }.}}{14}{figure.11}}
\newlabel{imgGraphSLAM}{{1.2}{14}{Schéma Graph SLAMu, pozice robota, landmarky a vazby meze nimi tvoří celistvý graf reprezentující okolí}{figure.11}{}}
\newlabel{eq2}{{1.2}{15}{Graph Based SLAM (Pose Graph)}{equation.12}{}}
\newlabel{eq3}{{1.3}{15}{Graph Based SLAM (Pose Graph)}{equation.13}{}}
\newlabel{eq4}{{1.4}{15}{Graph Based SLAM (Pose Graph)}{equation.14}{}}
\newlabel{eq5}{{1.5}{15}{Graph Based SLAM (Pose Graph)}{equation.16}{}}
\newlabel{eq6}{{1.6}{15}{Graph Based SLAM (Pose Graph)}{equation.17}{}}
\newlabel{eq7}{{1.7}{15}{Graph Based SLAM (Pose Graph)}{equation.18}{}}
\newlabel{eq8}{{1.8}{15}{Graph Based SLAM (Pose Graph)}{equation.19}{}}
\@writefile{lof}{\contentsline {figure}{\numberline {1.3}{\ignorespaces Chyba vznikla mezi zm\IeC {\v e}\IeC {\v r}enou a skute\IeC {\v c}nou polohou}}{16}{figure.15}}
\newlabel{imgSLAMError}{{1.3}{16}{Chyba vznikla mezi změřenou a skutečnou polohou}{figure.15}{}}
\@writefile{toc}{\contentsline {subsection}{\numberline {1.1.2}Dense SALM}{16}{subsection.20}}
\@writefile{toc}{\contentsline {subsection}{\numberline {1.1.3}Bundle Adjustment}{16}{subsection.21}}
\@writefile{lof}{\contentsline {figure}{\numberline {1.4}{\ignorespaces Grafick\IeC {\'e} zn\IeC {\'a}zorn\IeC {\v e}n\IeC {\'\i } chyby prom\IeC {\'\i }t\IeC {\'a}n\IeC {\'\i } trojrozm\IeC {\v e}rn\IeC {\'e}ho bodu na rovinu sn\IeC {\'\i }ma\IeC {\v c}e}}{17}{figure.22}}
\newlabel{imgBundleAdjustment}{{1.4}{17}{Grafické znázornění chyby promítání trojrozměrného bodu na rovinu snímače}{figure.22}{}}
\newlabel{eq9}{{1.9}{17}{Bundle Adjustment}{equation.23}{}}
\newlabel{eq10}{{1.10}{17}{Bundle Adjustment}{equation.24}{}}
\@writefile{toc}{\contentsline {section}{\numberline {1.2}Reprezentace prostoru}{18}{section.25}}
\@writefile{toc}{\contentsline {subsection}{\numberline {1.2.1}Point Cloud}{18}{subsection.26}}
\@writefile{lof}{\contentsline {figure}{\numberline {1.5}{\ignorespaces Point Cloud reprezentuj\IeC {\'\i }c\IeC {\'\i } chodbu}}{18}{figure.27}}
\newlabel{imgPointCloud}{{1.5}{18}{Point Cloud reprezentující chodbu}{figure.27}{}}
\@writefile{toc}{\contentsline {subsection}{\numberline {1.2.2}Octree}{19}{subsection.28}}
\@writefile{lof}{\contentsline {figure}{\numberline {1.6}{\ignorespaces Hierarchick\IeC {\'a} reprezentace octree struktury [REFERENCE]}}{19}{figure.29}}
\newlabel{imgOctree}{{1.6}{19}{Hierarchická reprezentace octree struktury [REFERENCE]}{figure.29}{}}
\@writefile{toc}{\contentsline {section}{\numberline {1.3}Pojmy a metody p\IeC {\v r}i SLAM}{19}{section.30}}
\@writefile{toc}{\contentsline {subsection}{\numberline {1.3.1}Keyframe}{20}{subsection.31}}
\@writefile{lof}{\contentsline {figure}{\numberline {1.7}{\ignorespaces Keyframy jsou obvykle graficky interpretov\IeC {\'a}ny jako objekty reprezentuj\IeC {\'\i }c\IeC {\'\i } frustum kamery na jeji trajektorii v \IeC {\v c}ase \(t\)}}{20}{figure.32}}
\newlabel{imgKeyframe}{{1.7}{20}{Keyframy jsou obvykle graficky interpretovány jako objekty reprezentující frustum kamery na jeji trajektorii v čase \(t\)}{figure.32}{}}
\@writefile{toc}{\contentsline {subsection}{\numberline {1.3.2}Iterative Closest Point (ICP)}{20}{subsection.33}}
\@writefile{toc}{\contentsline {subsection}{\numberline {1.3.3}Loop Close}{21}{subsection.34}}
\@writefile{toc}{\contentsline {subsection}{\numberline {1.3.4}RANSAC}{21}{subsection.36}}
\@writefile{lof}{\contentsline {figure}{\numberline {1.8}{\ignorespaces P\IeC {\v r}iklad nalezen\IeC {\'\i } uzav\IeC {\v r}en\IeC {\'e} smy\IeC {\v c}ky a relaxace grafu [REFERENCE]}}{22}{figure.35}}
\newlabel{imgLoopClose}{{1.8}{22}{Přiklad nalezení uzavřené smyčky a relaxace grafu [REFERENCE]}{figure.35}{}}
\newlabel{eq11}{{1.11}{22}{RANSAC}{equation.39}{}}
\@writefile{lof}{\contentsline {figure}{\numberline {1.9}{\ignorespaces Model nalezen\IeC {\'y} RUNSUC metodou, v\IeC {\'y}sledn\IeC {\'y} model je nete\IeC {\v c}n\IeC {\'y} na body s velkou chybou [REFERENCE]}}{23}{figure.37}}
\newlabel{imgRANSAC}{{1.9}{23}{Model nalezený RUNSUC metodou, výsledný model je netečný na body s velkou chybou [REFERENCE]}{figure.37}{}}
\@writefile{lof}{\contentsline {figure}{\numberline {1.10}{\ignorespaces Uk\IeC {\'a}zka inlayers (zelen\IeC {\v e}) a outlayers (\IeC {\v c}erven\IeC {\v e}) p\IeC {\v r}i hled\IeC {\'a}n\IeC {\'\i } transformace mezi dv\IeC {\v e}ma obrazy pomoc\IeC {\'\i } RUNSUC metody [REFERENCE]}}{23}{figure.38}}
\newlabel{imgRANSAC2d}{{1.10}{23}{Ukázka inlayers (zeleně) a outlayers (červeně) při hledání transformace mezi dvěma obrazy pomocí RUNSUC metody [REFERENCE]}{figure.38}{}}
\newlabel{eq12}{{1.12}{23}{RANSAC}{equation.40}{}}
\newlabel{eq13}{{1.13}{23}{RANSAC}{equation.41}{}}
\@writefile{toc}{\contentsline {subsection}{\numberline {1.3.5}Signed Distance Function (SDF)}{24}{subsection.42}}
\newlabel{eq13}{{1.14}{24}{Signed Distance Function (SDF)}{equation.43}{}}
\newlabel{eq14}{{1.15}{24}{Signed Distance Function (SDF)}{equation.44}{}}
\newlabel{eq15}{{1.16}{24}{Signed Distance Function (SDF)}{equation.45}{}}
\newlabel{eq16}{{1.17}{24}{Signed Distance Function (SDF)}{equation.46}{}}
\@writefile{lof}{\contentsline {figure}{\numberline {1.11}{\ignorespaces V\IeC {\'y}sledek skl\IeC {\'a}d\IeC {\'a}n\IeC {\'\i } dvou SDF koul\IeC {\'\i }. Vlevo minimum (sjednocen\IeC {\'\i }), vpravo maximu (pr\IeC {\r u}nik)}}{25}{figure.47}}
\newlabel{imgBalls}{{1.11}{25}{Výsledek skládání dvou SDF koulí. Vlevo minimum (sjednocení), vpravo maximu (průnik)}{figure.47}{}}
\@setckpt{text/problematika_slam}{
\setcounter{page}{26}
\setcounter{equation}{17}
\setcounter{enumi}{0}
\setcounter{enumii}{0}
\setcounter{enumiii}{0}
\setcounter{enumiv}{0}
\setcounter{footnote}{0}
\setcounter{mpfootnote}{0}
\setcounter{part}{0}
\setcounter{chapter}{1}
\setcounter{section}{3}
\setcounter{subsection}{5}
\setcounter{subsubsection}{0}
\setcounter{paragraph}{0}
\setcounter{subparagraph}{0}
\setcounter{figure}{11}
\setcounter{table}{0}
\setcounter{Item}{0}
\setcounter{Hfootnote}{0}
\setcounter{bookmark@seq@number}{15}
\setcounter{AM@survey}{0}
\setcounter{parentequation}{0}
\setcounter{section@level}{2}
}
