\relax 
\providecommand\hyper@newdestlabel[2]{}
\@writefile{toc}{\contentsline {chapter}{\numberline {3}RGB-D kamery}{34}{chapter.60}}
\@writefile{toc}{\contentsline {section}{\numberline {3.1}Aktivn\IeC {\'\i } triangulace}{34}{section.61}}
\@writefile{lof}{\contentsline {figure}{\numberline {3.1}{\ignorespaces Geometrie aktivn\IeC {\'\i } triangulace}}{35}{figure.62}}
\newlabel{imgActiveTrinag}{{3.1}{35}{Geometrie aktivní triangulace}{figure.62}{}}
\newlabel{eq15}{{3.1}{35}{Aktivní triangulace}{equation.63}{}}
\@writefile{toc}{\contentsline {section}{\numberline {3.2}Pasivn\IeC {\'\i } triangulace}{35}{section.64}}
\@writefile{lof}{\contentsline {figure}{\numberline {3.2}{\ignorespaces Geometrie pasivn\IeC {\'\i } triangulace}}{36}{figure.65}}
\newlabel{imgPasiveTrinag}{{3.2}{36}{Geometrie pasivní triangulace}{figure.65}{}}
\newlabel{eq16}{{3.2}{36}{Pasivní triangulace}{equation.66}{}}
\newlabel{eq17}{{3.3}{36}{Pasivní triangulace}{equation.67}{}}
\newlabel{eq18}{{3.4}{36}{Pasivní triangulace}{equation.68}{}}
\newlabel{eq19}{{3.5}{36}{Pasivní triangulace}{equation.69}{}}
\@writefile{lof}{\contentsline {figure}{\numberline {3.3}{\ignorespaces Epipol\IeC {\'a}rn\IeC {\'\i } geometrie mezi dv\IeC {\v e}mi rovinami}}{37}{figure.70}}
\newlabel{imgEpipolarGeometry}{{3.3}{37}{Epipolární geometrie mezi dvěmi rovinami}{figure.70}{}}
\@writefile{toc}{\contentsline {section}{\numberline {3.3}Princip Time of Flight}{37}{section.71}}
\newlabel{eq20}{{3.6}{38}{Princip Time of Flight}{equation.72}{}}
\@writefile{lof}{\contentsline {figure}{\numberline {3.4}{\ignorespaces Princip m\IeC {\v e}\IeC {\v r}en\IeC {\'\i } vzd\IeC {\'a}lenosti pulzem}}{38}{figure.73}}
\newlabel{imgPulse}{{3.4}{38}{Princip měření vzdálenosti pulzem}{figure.73}{}}
\newlabel{eq21}{{3.7}{38}{Princip Time of Flight}{equation.75}{}}
\@writefile{lof}{\contentsline {figure}{\numberline {3.5}{\ignorespaces Princip v\IeC {\'y}po\IeC {\v c}tu vzd\IeC {\'a}lenosti podle f\IeC {\'a}zov\IeC {\'e}ho posunu dvou pulz\IeC {\r u}}}{39}{figure.74}}
\newlabel{imgPulseTimeline}{{3.5}{39}{Princip výpočtu vzdálenosti podle fázového posunu dvou pulzů}{figure.74}{}}
\@writefile{lof}{\contentsline {figure}{\numberline {3.6}{\ignorespaces Princip sn\IeC {\'\i }m\IeC {\'a}n\IeC {\'\i } vzd\IeC {\'a}lenosti spojit\IeC {\'y}m sign\IeC {\'a}lem}}{39}{figure.76}}
\newlabel{imgContinousWave}{{3.6}{39}{Princip snímání vzdálenosti spojitým signálem}{figure.76}{}}
\newlabel{eq22}{{3.8}{39}{Princip Time of Flight}{equation.77}{}}
\newlabel{eq22}{{3.9}{39}{Princip Time of Flight}{equation.78}{}}
\newlabel{eq23}{{3.10}{40}{Princip Time of Flight}{equation.79}{}}
\newlabel{eq24}{{3.11}{40}{Princip Time of Flight}{equation.80}{}}
\newlabel{eq25}{{3.12}{40}{Princip Time of Flight}{equation.81}{}}
\newlabel{eq26}{{3.13}{40}{Princip Time of Flight}{equation.82}{}}
\newlabel{eq27}{{3.14}{40}{Princip Time of Flight}{equation.83}{}}
\newlabel{eq28}{{3.15}{40}{Princip Time of Flight}{equation.84}{}}
\@writefile{toc}{\contentsline {section}{\numberline {3.4}Distance-Varying Illumination and Imaging Techniques for Depth Mapping}{40}{section.86}}
\@writefile{lof}{\contentsline {figure}{\numberline {3.7}{\ignorespaces Princip m\IeC {\v e}\IeC {\v r}en\IeC {\'\i } vzd\IeC {\'a}lenosti dv\IeC {\v e}mi modula\IeC {\v c}n\IeC {\'\i }mi frekvencemi. Odstran\IeC {\'\i } se tak problem p\IeC {\v r}ete\IeC {\v c}en\IeC {\'\i } doby m\IeC {\v e}\IeC {\v r}en\IeC {\'\i } s periodou smodulace}}{41}{figure.85}}
\newlabel{imgTwoModulation}{{3.7}{41}{Princip měření vzdálenosti dvěmi modulačními frekvencemi. Odstraní se tak problem přetečení doby měření s periodou smodulace}{figure.85}{}}
\@writefile{lof}{\contentsline {figure}{\numberline {3.8}{\ignorespaces Princip dvoj\IeC {\'\i } polarizace bod\IeC {\r u}. Tvar a orientace jsou funkc\IeC {\'\i } vzd\IeC {\'a}lenosti}}{41}{figure.87}}
\newlabel{imgDoublePolarization}{{3.8}{41}{Princip dvojí polarizace bodů. Tvar a orientace jsou funkcí vzdálenosti}{figure.87}{}}
\@writefile{lof}{\contentsline {figure}{\numberline {3.9}{\ignorespaces Prom\IeC {\'\i }t\IeC {\'a}n\IeC {\'\i } dvojit\IeC {\v e} fokusovan\IeC {\'e}ho sv\IeC {\v e}tla na dv\IeC {\v e} r\IeC {\r u}zn\IeC {\v e} vzd\IeC {\'a}len\IeC {\'e} roviny}}{42}{figure.88}}
\newlabel{imgDoublePolarization2}{{3.9}{42}{Promítání dvojitě fokusovaného světla na dvě různě vzdálené roviny}{figure.88}{}}
\@writefile{toc}{\contentsline {section}{\numberline {3.5}Princip strukturovan\IeC {\'e}ho sv\IeC {\v e}tla}{42}{section.89}}
\@writefile{lof}{\contentsline {figure}{\numberline {3.10}{\ignorespaces Uk\IeC {\'a}zka sc\IeC {\'e}n\IeC {\'y} nasv\IeC {\v e}tlen\IeC {\'\i } Kinectem v IR spektru}}{42}{figure.90}}
\newlabel{imgKinectIRGrid}{{3.10}{42}{Ukázka scéný nasvětlení Kinectem v IR spektru}{figure.90}{}}
\@writefile{toc}{\contentsline {section}{\numberline {3.6}P\IeC {\v r}ehled dostupn\IeC {\'y}ch RGB-D kamer}{43}{section.91}}
\@writefile{toc}{\contentsline {subsection}{\numberline {3.6.1}Kinect v1 (Xbox 360)}{43}{subsection.92}}
\@writefile{toc}{\contentsline {subsection}{\numberline {3.6.2}Kinecv v2 (Xbox One)}{43}{subsection.93}}
\@writefile{toc}{\contentsline {subsection}{\numberline {3.6.3}Swiss Ranger SR4000}{44}{subsection.94}}
\@writefile{toc}{\contentsline {subsection}{\numberline {3.6.4}Asus Xtion Pro Live}{44}{subsection.95}}
\@writefile{toc}{\contentsline {subsection}{\numberline {3.6.5}SoftKinetic DS525}{44}{subsection.96}}
\@writefile{toc}{\contentsline {subsection}{\numberline {3.6.6}Orbbec Astra Pro}{45}{subsection.97}}
\@writefile{toc}{\contentsline {subsection}{\numberline {3.6.7}Orbbec Persee}{45}{subsection.98}}
\@writefile{toc}{\contentsline {subsection}{\numberline {3.6.8}ZED Stereo Camera}{45}{subsection.99}}
\@writefile{toc}{\contentsline {section}{\numberline {3.7}V\IeC {\'y}b\IeC {\v e}r sn\IeC {\'\i }ma\IeC {\v c}e}{46}{section.100}}
\@writefile{toc}{\contentsline {section}{\numberline {3.8}Geometrick\IeC {\'a} kalibrace Kinectu v2}{46}{section.101}}
\@writefile{toc}{\contentsline {subsection}{\numberline {3.8.1}Model d\IeC {\'\i }rkov\IeC {\'e} komory}{46}{subsection.102}}
\@writefile{lof}{\contentsline {figure}{\numberline {3.11}{\ignorespaces Sch\IeC {\'e}ma Camera Obscura}}{47}{figure.103}}
\newlabel{imgCameraObscura}{{3.11}{47}{Schéma Camera Obscura}{figure.103}{}}
\@writefile{toc}{\contentsline {subsection}{\numberline {3.8.2}Geometrie jednoduch\IeC {\'e}ho prom\IeC {\'\i }t\IeC {\'a}n\IeC {\'\i } \(R^3\)\IeC {\textrightarrow } \(R^2\)}{47}{subsection.104}}
\@writefile{lof}{\contentsline {figure}{\numberline {3.12}{\ignorespaces Geometrie prom\IeC {\'\i }t\IeC {\'a}n\IeC {\'\i } paprsku na rovinu sn\IeC {\'\i }mkua}}{47}{figure.105}}
\newlabel{imgr3r2}{{3.12}{47}{Geometrie promítání paprsku na rovinu snímkua}{figure.105}{}}
\newlabel{eq29}{{3.16}{48}{Geometrie jednoduchého promítání \(R^3\)→ \(R^2\)}{equation.106}{}}
\newlabel{eq30}{{3.17}{48}{Geometrie jednoduchého promítání \(R^3\)→ \(R^2\)}{equation.107}{}}
\newlabel{eq31}{{3.18}{48}{Geometrie jednoduchého promítání \(R^3\)→ \(R^2\)}{equation.108}{}}
\newlabel{eq32}{{3.19}{48}{Geometrie jednoduchého promítání \(R^3\)→ \(R^2\)}{equation.109}{}}
\newlabel{eq33}{{3.20}{48}{Geometrie jednoduchého promítání \(R^3\)→ \(R^2\)}{equation.110}{}}
\newlabel{eq33}{{3.21}{48}{Geometrie jednoduchého promítání \(R^3\)→ \(R^2\)}{equation.111}{}}
\newlabel{eq34}{{3.22}{49}{Geometrie jednoduchého promítání \(R^3\)→ \(R^2\)}{equation.112}{}}
\@writefile{toc}{\contentsline {subsection}{\numberline {3.8.3}Zkreslen\IeC {\'\i } sn\IeC {\'\i }ma\IeC {\v c}e}{49}{subsection.113}}
\@writefile{lof}{\contentsline {figure}{\numberline {3.13}{\ignorespaces Uk\IeC {\'a}zka radi\IeC {\'a}n\IeC {\'\i }ho zkreslen\IeC {\'\i } a) z\IeC {\'a}porn\IeC {\'e} radi\IeC {\'a}ln\IeC {\'\i } zkreslen\IeC {\'\i } (podu\IeC {\v s}ka), b) nulov\IeC {\'e} radi\IeC {\'a}ln\IeC {\'\i } zkreslen\IeC {\'\i }, c) kladn\IeC {\'e} radi\IeC {\'a}ln\IeC {\'\i } zkreslen\IeC {\'\i } (soudek)}}{49}{figure.114}}
\newlabel{imgDistorsion}{{3.13}{49}{Ukázka radiáního zkreslení a) záporné radiální zkreslení (poduška), b) nulové radiální zkreslení, c) kladné radiální zkreslení (soudek)}{figure.114}{}}
\newlabel{eq35}{{3.23}{49}{Zkreslení snímače}{equation.115}{}}
\newlabel{eq36}{{3.24}{49}{Zkreslení snímače}{equation.117}{}}
\@writefile{lof}{\contentsline {figure}{\numberline {3.14}{\ignorespaces P\IeC {\v r}\IeC {\'\i }\IeC {\v c}ina vzniku tangenci\IeC {\'a}ln\IeC {\'\i }ho zkresleni}}{50}{figure.116}}
\newlabel{imgTangDistorsion}{{3.14}{50}{Příčina vzniku tangenciálního zkresleni}{figure.116}{}}
\@writefile{toc}{\contentsline {subsection}{\numberline {3.8.4}Proces kalibrace}{50}{subsection.118}}
\@writefile{lof}{\contentsline {figure}{\numberline {3.15}{\ignorespaces Radi\IeC {\'a}ln\IeC {\'\i } zkreslen\IeC {\'\i } RGB kamery}}{51}{figure.119}}
\newlabel{imgradialDist}{{3.15}{51}{Radiální zkreslení RGB kamery}{figure.119}{}}
\@writefile{lof}{\contentsline {figure}{\numberline {3.16}{\ignorespaces Tangenci\IeC {\'a}ln\IeC {\'\i } zkreslen\IeC {\'\i } RGB kamery}}{52}{figure.120}}
\newlabel{imgTangenciallDist}{{3.16}{52}{Tangenciální zkreslení RGB kamery}{figure.120}{}}
\@writefile{lof}{\contentsline {figure}{\numberline {3.17}{\ignorespaces Celkov\IeC {\'e} zkreslen\IeC {\'\i } RGB kamery}}{52}{figure.121}}
\newlabel{imgTotalDist}{{3.17}{52}{Celkové zkreslení RGB kamery}{figure.121}{}}
\@writefile{toc}{\contentsline {subsection}{\numberline {3.8.5}Parametry hloubkov\IeC {\'e} kamery}{52}{subsection.123}}
\@writefile{lof}{\contentsline {figure}{\numberline {3.18}{\ignorespaces Uk\IeC {\'a}zka RGB sn\IeC {\'\i }mku p\IeC {\v r}ed a po korekci zkreslen\IeC {\'\i }}}{53}{figure.122}}
\newlabel{imgTotalDist}{{3.18}{53}{Ukázka RGB snímku před a po korekci zkreslení}{figure.122}{}}
\@writefile{lof}{\contentsline {figure}{\numberline {3.19}{\ignorespaces St\IeC {\v r}edn\IeC {\'\i } hodnota nam\IeC {\v e}\IeC {\v r}en\IeC {\'e} vzd\IeC {\'a}lenosti hloubkovou kamerou na 100 sn\IeC {\'\i }mc\IeC {\'\i }ch. Jednotka intensity jasu odpov\IeC {\'\i }d\IeC {\'a} 1mm hloubky sc\IeC {\'e}ny}}{53}{figure.124}}
\newlabel{imgDepthAvg}{{3.19}{53}{Střední hodnota naměřené vzdálenosti hloubkovou kamerou na 100 snímcích. Jednotka intensity jasu odpovídá 1mm hloubky scény}{figure.124}{}}
\@writefile{lof}{\contentsline {figure}{\numberline {3.20}{\ignorespaces Sm\IeC {\v e}rodatn\IeC {\'a} odchylka m\IeC {\v e}\IeC {\v r}en\IeC {\'\i } hloubky sc\IeC {\'e}ny v mm na sto sn\IeC {\'\i }mc\IeC {\'\i }ch}}{54}{figure.125}}
\newlabel{imgDepthStdDif}{{3.20}{54}{Směrodatná odchylka měření hloubky scény v mm na sto snímcích}{figure.125}{}}
\@setckpt{text/rgbd_kamery}{
\setcounter{page}{55}
\setcounter{equation}{24}
\setcounter{enumi}{0}
\setcounter{enumii}{0}
\setcounter{enumiii}{0}
\setcounter{enumiv}{0}
\setcounter{footnote}{0}
\setcounter{mpfootnote}{0}
\setcounter{part}{0}
\setcounter{chapter}{3}
\setcounter{section}{8}
\setcounter{subsection}{5}
\setcounter{subsubsection}{0}
\setcounter{paragraph}{0}
\setcounter{subparagraph}{0}
\setcounter{figure}{20}
\setcounter{table}{0}
\setcounter{Item}{0}
\setcounter{Hfootnote}{0}
\setcounter{bookmark@seq@number}{44}
\setcounter{AM@survey}{0}
\setcounter{parentequation}{0}
\setcounter{section@level}{2}
}
