\relax 
\providecommand\hyper@newdestlabel[2]{}
\@writefile{toc}{\contentsline {chapter}{\numberline {4}Tvorba testovac\IeC {\'\i }ho datasetu}{55}{chapter.126}}
\@writefile{toc}{\contentsline {section}{\numberline {4.1}Hardwarov\IeC {\'e} vybaven\IeC {\'\i }}{55}{section.127}}
\@writefile{toc}{\contentsline {section}{\numberline {4.2}Softwarov\IeC {\'e} vybaven\IeC {\'\i }}{55}{section.128}}
\@writefile{toc}{\contentsline {subsection}{\numberline {4.2.1}Ubuntu 14.04}{55}{subsection.129}}
\@writefile{toc}{\contentsline {subsection}{\numberline {4.2.2}OpenNI2 framework}{56}{subsection.130}}
\@writefile{toc}{\contentsline {subsection}{\numberline {4.2.3}Ovlada\IeC {\v c} libfreenect2}{56}{subsection.131}}
\@writefile{toc}{\contentsline {subsection}{\numberline {4.2.4}Qt Framework}{57}{subsection.132}}
\@writefile{lof}{\contentsline {figure}{\numberline {4.1}{\ignorespaces Architektura multiplatformn\IeC {\'\i }ho softwaru vytvo\IeC {\v r}en\IeC {\'e}ho Qt frameworkem}}{57}{figure.133}}
\newlabel{imgQtArch}{{4.1}{57}{Architektura multiplatformního softwaru vytvořeného Qt frameworkem}{figure.133}{}}
\@writefile{toc}{\contentsline {subsection}{\numberline {4.2.5}.ONI soubor}{57}{subsection.134}}
\@writefile{toc}{\contentsline {section}{\numberline {4.3}Po\IeC {\v r}\IeC {\'\i }zen\IeC {\'\i } testovac\IeC {\'\i }ch dat}{58}{section.135}}
\@writefile{toc}{\contentsline {subsection}{\numberline {4.3.1}Data po\IeC {\v r}\IeC {\'\i }zen\IeC {\'a} Kinectem v2}{58}{subsection.136}}
\@writefile{lof}{\contentsline {figure}{\numberline {4.2}{\ignorespaces V\IeC {\'y}stup Kinectu v2. Vlevo obraz hloubkov\IeC {\'e} kamery, vpravo RGB v\IeC {\'y}stup}}{58}{figure.137}}
\newlabel{imgKinectOutput}{{4.2}{58}{Výstup Kinectu v2. Vlevo obraz hloubkové kamery, vpravo RGB výstup}{figure.137}{}}
\@writefile{toc}{\contentsline {subsection}{\numberline {4.3.2}Data po\IeC {\v r}\IeC {\'\i }zen\IeC {\'a} ToF Faro X330}{59}{subsection.138}}
\@writefile{lof}{\contentsline {figure}{\numberline {4.3}{\ignorespaces Uk\IeC {\'a}zka sc\IeC {\'e}ny naskenovan\IeC {\'e} ToF Faro X330}}{59}{figure.139}}
\newlabel{imgFaroScan}{{4.3}{59}{Ukázka scény naskenované ToF Faro X330}{figure.139}{}}
\@writefile{toc}{\contentsline {subsection}{\numberline {4.3.3}Uk\IeC {\'a}zka Elastic Fusion}{59}{subsection.140}}
\@writefile{lof}{\contentsline {figure}{\numberline {4.4}{\ignorespaces Grafick\IeC {\'e} rozhran\IeC {\'\i } projektu Elastic Fusion}}{60}{figure.141}}
\newlabel{imgElasticFusion}{{4.4}{60}{Grafické rozhraní projektu Elastic Fusion}{figure.141}{}}
\@writefile{lof}{\contentsline {figure}{\numberline {4.5}{\ignorespaces Sc\IeC {\'e}na nasn\IeC {\'\i }man\IeC {\'a} Kinectem v2 a sestavena projektem Elastic Fusion do point cloudu}}{61}{figure.142}}
\newlabel{imgElasticFusionPC}{{4.5}{61}{Scéna nasnímaná Kinectem v2 a sestavena projektem Elastic Fusion do point cloudu}{figure.142}{}}
\@setckpt{text/testovaci_data}{
\setcounter{page}{62}
\setcounter{equation}{0}
\setcounter{enumi}{0}
\setcounter{enumii}{0}
\setcounter{enumiii}{0}
\setcounter{enumiv}{0}
\setcounter{footnote}{0}
\setcounter{mpfootnote}{0}
\setcounter{part}{0}
\setcounter{chapter}{4}
\setcounter{section}{3}
\setcounter{subsection}{3}
\setcounter{subsubsection}{0}
\setcounter{paragraph}{0}
\setcounter{subparagraph}{0}
\setcounter{figure}{5}
\setcounter{table}{0}
\setcounter{Item}{0}
\setcounter{Hfootnote}{0}
\setcounter{bookmark@seq@number}{56}
\setcounter{AM@survey}{0}
\setcounter{parentequation}{0}
\setcounter{section@level}{2}
}
