\relax 
\providecommand\hyper@newdestlabel[2]{}
\@writefile{toc}{\contentsline {chapter}{Seznam symbol\r {u}, veli\v {c}in a zkratek}{71}{section*.176}}
\newacro{zkGPS}[\AC@hyperlink{zkGPS}{GPS}]{Global Positioning System}
\newacro{zkSLAM}[\AC@hyperlink{zkSLAM}{SLAM}]{Simultanious Localication And Mapping}
\newacro{zk2D}[\AC@hyperlink{zk2D}{2D}]{Dvourozm\IeC {\v e}rn\IeC {\'y} prostor}
\newacro{zk3D}[\AC@hyperlink{zk3D}{3D}]{T\IeC {\v r}\IeC {\'\i }rozm\IeC {\v e}rn\IeC {\'y} prostor}
\newacro{zkLIDAR}[\AC@hyperlink{zkLIDAR}{LIDAR}]{Light Imaging, Detection And Ranging}
\newacro{zkSDF}[\AC@hyperlink{zkSDF}{SDF}]{Signed Distance Function}
\newacro{zkTSDF}[\AC@hyperlink{zkTSDF}{TSDF}]{Truncated Signed Distance Function}
\newacro{zkpx}[\AC@hyperlink{zkpx}{px}]{Picture Element (pixel)}
\newacro{zkvx}[\AC@hyperlink{zkvx}{vx}]{Volume Element (voxel)}
\newacro{zkPCL}[\AC@hyperlink{zkPCL}{PCL}]{Point Cloud Library}
\newacro{zkICP}[\AC@hyperlink{zkICP}{ICP}]{Iterative Closest Point}
\newacro{zkRGB}[\AC@hyperlink{zkRGB}{RGB}]{Red, Green, Blue}
\newacro{zkRGBD}[\AC@hyperlink{zkRGBD}{RGB-D}]{Red, Green, Blue, Depth}
\newacro{zkSIFT}[\AC@hyperlink{zkSIFT}{SIFT}]{Scale Invariant Feature Transform}
\newacro{zkSURF}[\AC@hyperlink{zkSURF}{SURF}]{Speeded Up Robust Features}
\newacro{zkORB}[\AC@hyperlink{zkORB}{ORB}]{oFAST + rBRIEF}
\newacro{zkToF}[\AC@hyperlink{zkToF}{ToF}]{TIme of Flight}
\newacro{zkfps}[\AC@hyperlink{zkfps}{fps}]{frames per second}
\newacro{zkdeg}[\AC@hyperlink{zkdeg}{deg}]{degree}
\newacro{zkFoV}[\AC@hyperlink{zkFoV}{FoV}]{Filed of View}
\newacro{zkEKF}[\AC@hyperlink{zkEKF}{EKF}]{Extended Kalman Filter}
\@setckpt{text/zkratky}{
\setcounter{page}{72}
\setcounter{equation}{0}
\setcounter{enumi}{0}
\setcounter{enumii}{0}
\setcounter{enumiii}{0}
\setcounter{enumiv}{1}
\setcounter{footnote}{0}
\setcounter{mpfootnote}{0}
\setcounter{part}{0}
\setcounter{chapter}{6}
\setcounter{section}{0}
\setcounter{subsection}{0}
\setcounter{subsubsection}{0}
\setcounter{paragraph}{0}
\setcounter{subparagraph}{0}
\setcounter{figure}{0}
\setcounter{table}{0}
\setcounter{Item}{0}
\setcounter{Hfootnote}{0}
\setcounter{bookmark@seq@number}{66}
\setcounter{AM@survey}{0}
\setcounter{parentequation}{0}
\setcounter{section@level}{0}
}
