\relax 
\providecommand\hyper@newdestlabel[2]{}
\AC@reset@newl@bel
\providecommand\HyperFirstAtBeginDocument{\AtBeginDocument}
\HyperFirstAtBeginDocument{\ifx\hyper@anchor\@undefined
\global\let\oldcontentsline\contentsline
\gdef\contentsline#1#2#3#4{\oldcontentsline{#1}{#2}{#3}}
\global\let\oldnewlabel\newlabel
\gdef\newlabel#1#2{\newlabelxx{#1}#2}
\gdef\newlabelxx#1#2#3#4#5#6{\oldnewlabel{#1}{{#2}{#3}}}
\AtEndDocument{\ifx\hyper@anchor\@undefined
\let\contentsline\oldcontentsline
\let\newlabel\oldnewlabel
\fi}
\fi}
\global\let\hyper@last\relax 
\gdef\HyperFirstAtBeginDocument#1{#1}
\providecommand\HyField@AuxAddToFields[1]{}
\providecommand\HyField@AuxAddToCoFields[2]{}
\catcode `"\active 
\catcode `-\active 
\select@language{czech}
\@writefile{toc}{\select@language{czech}}
\@writefile{lof}{\select@language{czech}}
\@writefile{lot}{\select@language{czech}}
\@input{text/uvod.aux}
\@input{text/problematika_slam.aux}
\@input{text/implementace.aux}
\@input{text/rgbd_kamery.aux}
\@input{text/testovaci_data.aux}
\@input{text/navrh_upravy.aux}
\@input{text/zaver.aux}
\@input{text/literatura.aux}
\@input{text/zkratky.aux}
\@writefile{toc}{\contentsline {chapter}{Seznam p\v {r}\'{\i }loh}{72}{section*.178}}
\@input{text/prilohy.aux}
\gdef\pocet@stran{75}
